{
    "QatarDCOFeeds_Image_Feed": [{
        "_id": 0,
        "ImageURL": {
            "Url": "https://digital-creative-review.com/qatar/default-300x250.jpg"
        }
    }],
    "QatarDCOFeeds_Language_Feed_DESTINATION": [{
        "_id": 0,
        "city": "Annaba"
    }],
    "QatarDCOFeeds_Language_Feed_ORIGIN": [{
        "_id": 0,
        "iata_code": "ACK",
        "city": "Auckland"
    }],
    "Profile": [{
        "_id": 0,
        "language": {
            "0": "en"
        },
        "flightdestination": {
            "0": "doh"
        },
        "flightorigin": {
            "0": "ams"
        },
        "numberofpeople": {
            "0": "1"
        },
        "startdate": {
            "0": "2021-04-01"
        },
        "enddate": {
            "0": "2021-08-01"
        },
        "itinerytype": {
            "0": "return"
        },
        "class": {
            "0": "economy_saver"
        }
    }],
    "ProductFeed": [{
        "_id": 0,
        "org_station_code2": "AAL",
        "org_city_name": "Aalborg",
        "dst_station_code2": "AKL",
        "dst_city_name": "Auckland",
        "currency_code": "NZD",
        "lowest_fare_economy_oneway": 5967,
        "lowest_fare_premium_oneway": 16603,
        "lowest_fare_economy_return": 8570,
        "lowest_fare_premium_return": 25256,
        "destination_url_economy_oneway": {
            "Url": "https://booking.qatarairways.com/nsp/views/showBooking.action?selLang=en&tripType=O&fromStation=AAL&toStation=AKL&departing=2021-03-28&bookingClass=E&adults=1&children=0&infants=0"
        },
        "destination_url_premium_oneway": {
            "Url": "https://booking.qatarairways.com/nsp/views/showBooking.action?selLang=en&tripType=O&fromStation=AAL&toStation=AKL&departing=2021-01-14&bookingClass=B&adults=1&children=0&infants=0"
        },
        "destination_url_economy_return": {
            "Url": "https://booking.qatarairways.com/nsp/views/showBooking.action?selLang=en&tripType=R&fromStation=AAL&toStation=AKL&departing=2021-05-16&returning=2021-06-14&bookingClass=E&adults=1&children=0&infants=0"
        },
        "destination_url_premium_return": {
            "Url": "https://booking.qatarairways.com/nsp/views/showBooking.action?selLang=en&tripType=R&fromStation=AAL&toStation=AKL&departing=2021-03-28&returning=2021-04-05&bookingClass=B&adults=1&children=0&infants=0"
        },
        "destination_city_image_url": {
            "Url": "https://www.qatarairways.com/content/dam/images/custom/FacebookRM/AKL.jpg?ver=1"
        }
    }],
    "CurrencyTranslations": [{
        "_id": 0,
        "currencyName": "NZD",
        "CurrencyTranslation": "NZ Dollar",
        "CurrencyCode": {
            "0": "AWG"
        }
    }],
    "SeamlessFeed": [{
        "_id": 0,
        "a1_exit__url": {
            "Url": "https://www.qatarairways.com/en/homepage.html"
        },
        "a1_backgroundColour__hex": "#000000",
        "a1_Logo1__img": {
            "Url": "https://digital-creative-review.com/qatar/logo-oneworld2.png"
        },
        "a1_Logo1__yesno": true,
        "a1_Logo2__img": {
            "Url": "https://digital-creative-review.com/qatar/logo-brand.png"
        },
        "a1_Logo2__yesno": true,
        "a1_Aditional_Exit_parameter__text": "testpar",
        "a1_HeadlineText_1__text": "Going Places together",
        "a1_HeadlineText_1_FontSize__number": 20,
        "a1_HeadlineText_1_FontColour__hex": "#FFFFFF",
        "a1_TandC__text": "Terms & Conditions apply",
        "a1_TandC_FontSize__number": "8",
        "a1_TandC_FontColour__hex": "#FFFFFF",
        "a1_CTA_Image__img": {
            "Url": "https://digital-creative-review.com/qatar/CTA/EN-booknow-portraitlong.png"
        },
        "a2_Origin_FontSize__number": 24,
        "a2_Origin_FontColour__hex": "#FFFFFF",
        "a2_Origin_Bolding__yesno": false,
        "a2_Destinations_FontSize__number": 24,
        "a2_Destinations_FontColour__hex": "#FFFFFF",
        "a2_Destinations_Bolding__yesno": false,
        "a2_PriceExpression__text": "from [currency]",
        "a2_PriceExpression_FontSize__number": 9.1,
        "a2_PriceExpression_FontColour__hex": "#FFFFFF",
        "a2_PriceExpression_Bolding__yesno": false,
        "a2_PriceValue_FontSize__number": 30.1,
        "a2_PriceValue_FontColour__hex": "#FFFFFF",
        "a2_PriceValue_Bolding__yesno": true,
        "utm_source__text": "a",
        "utm_medium__text": "b",
        "utm_campaign__text": "c",
        "utm_term__text": "d",
        "utm_content__text": "e"
    }]
}